{
  "actionErrors": [],
  "actionMessages": [],
  "fieldErrors": {},
  "isPagination": "",
  "jsonCallBack": null,
  "locale": "en",
  "pageHelp": {
    "beginPage": 1,
    "cacheSize": 1,
    "data": [
      {
        "COMPANY_ABBR_EN": "SPD BANK",
        "STOCK_TYPE": "1",
        "LIST_BOARD": "1",
        "COMPANY_ABBR": "浦发银行",
        "A_STOCK_CODE": "600000",
        "AREA_NAME": "310000",
        "DELIST_DATE": "-",
        "NUM": "1",
        "SEC_NAME_CN": "浦发银行",
        "AREA_NAME_DESC": "上海市",
        "FULL_NAME_IN_ENGLISH": "Shanghai Pudong Development Bank Co.,Ltd.",
        "SEC_NAME_FULL": "浦发银行",
        "STATE_CODE": "2",
        "B_STOCK_CODE": "-",
        "STATE_CODE_STOCK": "4",
        "LIST_DATE": "19991110",
        "CSRC_CODE": "J",
        "PRODUCT_STATUS": "   D  F  N          ",
        "CSRC_CODE_DESC": "金融业",
        "COMPANY_CODE": "600000",
        "FULL_NAME": "上海浦东发展银行股份有限公司"
      }
    ],
    "endDate": null,
    "endPage": 1,
    "objectResult": null,
    "pageCount": 1694,
    "pageNo": 1,
    "pageSize": 1,
    "pageSizeWithOutLimit": 1,
    "searchDate": null,
    "sort": null,
    "startDate": null,
    "total": 1694
  },
  "pageNo": null,
  "pageSize": null,
  "queryDate": "",
  "result": [
    {
      "COMPANY_ABBR_EN": "SPD BANK",
      "STOCK_TYPE": "1",
      "LIST_BOARD": "1",
      "COMPANY_ABBR": "浦发银行",
      "A_STOCK_CODE": "600000",
      "AREA_NAME": "310000",
      "DELIST_DATE": "-",
      "NUM": "1",
      "SEC_NAME_CN": "浦发银行",
      "AREA_NAME_DESC": "上海市",
      "FULL_NAME_IN_ENGLISH": "Shanghai Pudong Development Bank Co.,Ltd.",
      "SEC_NAME_FULL": "浦发银行",
      "STATE_CODE": "2",
      "B_STOCK_CODE": "-",
      "STATE_CODE_STOCK": "4",
      "LIST_DATE": "19991110",
      "CSRC_CODE": "J",
      "PRODUCT_STATUS": "   D  F  N          ",
      "CSRC_CODE_DESC": "金融业",
      "COMPANY_CODE": "600000",
      "FULL_NAME": "上海浦东发展银行股份有限公司"
    }
  ],
  "securityCode": "",
  "sqlId": "COMMON_SSE_CP_GPJCTPZ_GPLB_GP_L",
  "texts": null,
  "type": "inParams",
  "validateCode": ""
}
